Using the Tesseract OCR engine in R • cpp11tesseract
…
Not bad! The ocr_data() function returns all words in the image along with a bounding box and confidence rate.

results <- ocr_data(file, engine = eng)
results

## # A tibble: 60 × 4
##    word  confidence bbox           stringsAsFactors
##    <chr>      <dbl> <chr>          <lgl>           
##  1 This        96.8 36,92,96,116   FALSE           
##  2 is          96.9 109,92,129,116 FALSE           
##  3 a           95.0 141,98,156,116 FALSE           
##  4 lot         95.0 169,92,201,116 FALSE           
##  5 of          96.4 212,92,240,116 FALSE           
##  6 12          96.4 251,92,282,116 FALSE           
##  7 point       96.3 296,92,364,122 FALSE           
##  8 text        96.2 374,93,427,116 FALSE           
##  9 to          97.0 437,93,463,116 FALSE           
## 10 test        97.0 474,93,526,116 FALSE           
## # ℹ 50 more rows
…
