Tesseract Engine — tesseract • cpp11tesseract
…
    See also

    Other tesseract: 
ocr(),
tesseract_download()

    Examples

tesseract_params("debug")
#> # A tibble: 61 × 3
#>    param                       default    desc                                  
#>  * <chr>                       <chr>      <chr>                                 
#>  1 textord_debug_block         0          Block to do debug on                  
#>  2 devanagari_split_debuglevel 0          Debug level for split shiro-rekha pro…
#>  3 textord_debug_tabfind       0          Debug tab finding                     
#>  4 textord_debug_bugs          0          Turn on output related to bugs in tab…
#>  5 textord_testregion_left     -1         Left edge of debug reporting rectangl…
#>  6 textord_testregion_top      2147483647 Top edge of debug reporting rectangle…
#>  7 textord_testregion_right    2147483647 Right edge of debug rectangle in Lept…
#>  8 textord_testregion_bottom   -1         Bottom edge of debug rectangle in Lep…
#>  9 textord_debug_pitch_test    0          Debug on fixed pitch test             
#> 10 textord_debug_pitch_metric  0          Write full metric stuff               
#> # ℹ 51 more rows
…
